{
  "current_page": 1,
  "data": [
    {
      "id": 1,
      "url": "",
      "created_at": "2022-01-22T09:40:27.000000Z",
      "updated_at": "2022-01-22T09:40:27.000000Z"
    },
    {
      "id": 2,
      "url": "",
      "created_at": "2022-01-22T09:40:55.000000Z",
      "updated_at": "2022-01-22T09:40:55.000000Z"
    },
    {
      "id": 3,
      "url": "",
      "created_at": "2022-01-22T09:43:28.000000Z",
      "updated_at": "2022-01-22T09:43:28.000000Z"
    },
    {
      "id": 4,
      "url": "",
      "created_at": "2022-01-22T13:04:32.000000Z",
      "updated_at": "2022-01-22T13:04:32.000000Z"
    },
    {
      "id": 5,
      "url": "",
      "created_at": "2022-01-22T13:05:04.000000Z",
      "updated_at": "2022-01-22T13:05:04.000000Z"
    },
    {
      "id": 6,
      "url": "",
      "created_at": "2022-01-22T13:05:31.000000Z",
      "updated_at": "2022-01-22T13:05:31.000000Z"
    },
    {
      "id": 7,
      "url": "",
      "created_at": "2022-01-22T13:05:47.000000Z",
      "updated_at": "2022-01-22T13:05:47.000000Z"
    },
    {
      "id": 8,
      "url": "",
      "created_at": "2022-01-22T16:22:27.000000Z",
      "updated_at": "2022-01-22T16:22:27.000000Z"
    },
    {
      "id": 9,
      "url": "",
      "created_at": "2022-01-22T16:22:56.000000Z",
      "updated_at": "2022-01-22T16:22:56.000000Z"
    },
    {
      "id": 10,
      "url": "",
      "created_at": "2022-01-22T16:25:58.000000Z",
      "updated_at": "2022-01-22T16:25:58.000000Z"
    },
    {
      "id": 11,
      "url": "",
      "created_at": "2022-01-22T16:26:11.000000Z",
      "updated_at": "2022-01-22T16:26:11.000000Z"
    },
    {
      "id": 12,
      "url": "",
      "created_at": "2022-01-22T16:35:53.000000Z",
      "updated_at": "2022-01-22T16:35:53.000000Z"
    },
    {
      "id": 13,
      "url": "",
      "created_at": "2022-01-22T16:36:01.000000Z",
      "updated_at": "2022-01-22T16:36:01.000000Z"
    },
    {
      "id": 14,
      "url": "",
      "created_at": "2022-01-22T16:52:15.000000Z",
      "updated_at": "2022-01-22T16:52:15.000000Z"
    },
    {
      "id": 15,
      "url": "",
      "created_at": "2022-01-22T16:52:26.000000Z",
      "updated_at": "2022-01-22T16:52:26.000000Z"
    }
  ],
  "first_page_url": "http://localhost/attachments?page=1",
  "from": 1,
  "last_page": 32,
  "last_page_url": "http://localhost/attachments?page=32",
  "links": [
    { "url": null, "label": "&laquo; Previous", "active": false },
    {
      "url": "http://localhost/attachments?page=1",
      "label": "1",
      "active": true
    },
    {
      "url": "http://localhost/attachments?page=2",
      "label": "2",
      "active": false
    },
    {
      "url": "http://localhost/attachments?page=3",
      "label": "3",
      "active": false
    },
    {
      "url": "http://localhost/attachments?page=4",
      "label": "4",
      "active": false
    },
    {
      "url": "http://localhost/attachments?page=5",
      "label": "5",
      "active": false
    },
    {
      "url": "http://localhost/attachments?page=6",
      "label": "6",
      "active": false
    },
    {
      "url": "http://localhost/attachments?page=7",
      "label": "7",
      "active": false
    },
    {
      "url": "http://localhost/attachments?page=8",
      "label": "8",
      "active": false
    },
    {
      "url": "http://localhost/attachments?page=9",
      "label": "9",
      "active": false
    },
    {
      "url": "http://localhost/attachments?page=10",
      "label": "10",
      "active": false
    },
    { "url": null, "label": "...", "active": false },
    {
      "url": "http://localhost/attachments?page=31",
      "label": "31",
      "active": false
    },
    {
      "url": "http://localhost/attachments?page=32",
      "label": "32",
      "active": false
    },
    {
      "url": "http://localhost/attachments?page=2",
      "label": "Next &raquo;",
      "active": false
    }
  ],
  "next_page_url": "http://localhost/attachments?page=2",
  "path": "http://localhost/attachments",
  "per_page": 15,
  "prev_page_url": null,
  "to": 15,
  "total": 476
}
